{
    "averageEvery": 0,
    "averageMinBrightness": -1000000000.0,
    "averageMinCount": -1000000000.0,
    "brightnessCutoffMultipler": 0.8,
    "crustal": [
        {
            "depth": 0,
            "pw": 1.3,
            "sw": 0.75
        },
        {
            "depth": 0.075,
            "pw": 2.3,
            "sw": 1.3
        },
        {
            "depth": 0.375,
            "pw": 4.2,
            "sw": 2.43
        }
    ],
    "fileSaveFilter": {
        "goodP": null,
        "ratGood": null,
        "ratNum": null
    },
    "range": {
        "xMax": 0,
        "xMin": 0,
        "xStep": 0,
        "yMax": 0,
        "yMin": 0,
        "yStep": 0,
        "zMax": 0,
        "zMin": 0,
        "zStep": 0
    },
    "samplingRate": 0.005,
    "securityMargin": 200
}
